<?xml version="1.0" encoding="UTF-8"?>
<svg xmlns="http://www.w3.org/2000/svg" xmlns:xlink="http://www.w3.org/1999/xlink" width="105.913pt" height="77.617pt" viewBox="0 0 105.913 77.617" version="1.1">
<defs>
<g>
<symbol overflow="visible" id="glyph0-0">
<path style="stroke:none;" d=""/>
</symbol>
<symbol overflow="visible" id="glyph0-1">
<path style="stroke:none;" d="M 6.1875 -9.984375 C 6.078125 -10.1875 6.046875 -10.234375 5.859375 -10.234375 C 5.640625 -10.234375 5.609375 -10.1875 5.515625 -9.984375 L 0.71875 -0.28125 C 0.6875 -0.25 0.65625 -0.15625 0.65625 -0.09375 C 0.65625 -0.015625 0.671875 0 0.96875 0 L 10.734375 0 C 11.015625 0 11.03125 -0.015625 11.03125 -0.09375 C 11.03125 -0.15625 11 -0.25 10.96875 -0.28125 Z M 5.40625 -8.921875 L 9.328125 -0.984375 L 1.5 -0.984375 Z M 5.40625 -8.921875 "/>
</symbol>
<symbol overflow="visible" id="glyph0-2">
<path style="stroke:none;" d="M 5.578125 -1.890625 C 7.765625 -2.078125 9.359375 -3.40625 9.359375 -4.890625 C 9.359375 -6.421875 7.71875 -7.71875 5.578125 -7.90625 L 5.578125 -8.6875 C 5.578125 -9.203125 5.609375 -9.375 6.859375 -9.375 L 7.28125 -9.375 L 7.28125 -9.796875 C 6.90625 -9.765625 5.515625 -9.765625 5.03125 -9.765625 C 4.5625 -9.765625 3.171875 -9.765625 2.78125 -9.796875 L 2.78125 -9.375 L 3.21875 -9.375 C 4.453125 -9.375 4.484375 -9.203125 4.484375 -8.6875 L 4.484375 -7.890625 C 2.265625 -7.6875 0.78125 -6.328125 0.78125 -4.90625 C 0.78125 -3.421875 2.3125 -2.109375 4.484375 -1.90625 L 4.484375 -1.109375 C 4.484375 -0.59375 4.453125 -0.421875 3.21875 -0.421875 L 2.78125 -0.421875 L 2.78125 0 C 3.171875 -0.03125 4.5625 -0.03125 5.03125 -0.03125 C 5.515625 -0.03125 6.90625 -0.03125 7.28125 0 L 7.28125 -0.421875 L 6.859375 -0.421875 C 5.609375 -0.421875 5.578125 -0.59375 5.578125 -1.109375 Z M 4.484375 -2.203125 C 2.921875 -2.40625 2.078125 -3.328125 2.078125 -4.890625 C 2.078125 -6.46875 2.90625 -7.390625 4.484375 -7.59375 Z M 5.578125 -7.609375 C 7.265625 -7.390625 8.046875 -6.421875 8.046875 -4.90625 C 8.046875 -3.40625 7.3125 -2.421875 5.578125 -2.1875 Z M 5.578125 -7.609375 "/>
</symbol>
</g>
<clipPath id="clip1">
  <path d="M 0 16 L 81 16 L 81 77.617188 L 0 77.617188 Z M 0 16 "/>
</clipPath>
<clipPath id="clip2">
  <path d="M 0 8 L 77 8 L 77 77.617188 L 0 77.617188 Z M 0 8 "/>
</clipPath>
<clipPath id="clip3">
  <path d="M 0 0 L 70 0 L 70 77.617188 L 0 77.617188 Z M 0 0 "/>
</clipPath>
</defs>
<g id="surface1">
<path style="fill:none;stroke-width:0.99628;stroke-linecap:butt;stroke-linejoin:miter;stroke:rgb(0%,0%,0%);stroke-opacity:1;stroke-miterlimit:10;" d="M -93.259312 38.311906 L -190.208531 38.311906 C -192.40775 38.311906 -194.192906 36.52675 -194.192906 34.327531 L -194.192906 -34.324812 C -194.192906 -36.527937 -192.40775 -38.309187 -190.208531 -38.309187 L -93.259312 -38.309187 C -91.060094 -38.309187 -89.274937 -36.527937 -89.274937 -34.324812 L -89.274937 34.327531 C -89.274937 36.52675 -91.060094 38.311906 -93.259312 38.311906 Z M -93.259312 38.311906 " transform="matrix(1,0,0,-1,194.689,38.808)"/>
<g clip-path="url(#clip1)" clip-rule="nonzero">
<path style="fill:none;stroke-width:0.99628;stroke-linecap:butt;stroke-linejoin:miter;stroke:rgb(0%,0%,50%);stroke-opacity:1;stroke-miterlimit:10;" d="M 28.34675 0.001 C 28.34675 11.743188 15.655344 21.258813 -0.00090625 21.258813 C -15.657156 21.258813 -28.348563 11.743188 -28.348563 0.001 C -28.348563 -11.741187 -15.657156 -21.260719 -0.00090625 -21.260719 C 15.655344 -21.260719 28.34675 -11.741187 28.34675 0.001 Z M 28.34675 0.001 " transform="matrix(1,0,0,-1,37.622,51.376)"/>
</g>
<path style="fill:none;stroke-width:0.3985;stroke-linecap:butt;stroke-linejoin:miter;stroke:rgb(0%,50%,50%);stroke-opacity:1;stroke-dasharray:2.98883,2.98883;stroke-miterlimit:10;" d="M -28.348563 0.001 L 42.518625 0.001 " transform="matrix(1,0,0,-1,37.622,51.376)"/>
<g clip-path="url(#clip2)" clip-rule="nonzero">
<path style="fill:none;stroke-width:0.99628;stroke-linecap:butt;stroke-linejoin:miter;stroke:rgb(0%,0%,50%);stroke-opacity:1;stroke-miterlimit:10;" d="M 22.327219 19.4385 C 16.456125 29.606469 0.706125 31.504906 -12.852469 23.676781 C -26.411063 15.848656 -32.641531 1.258813 -26.770438 -8.909156 C -20.899344 -19.077125 -5.149344 -20.975562 8.40925 -13.147437 C 21.967844 -5.319312 28.198312 9.270531 22.327219 19.4385 Z M 22.327219 19.4385 " transform="matrix(1,0,0,-1,37.622,51.376)"/>
</g>
<path style="fill:none;stroke-width:0.3985;stroke-linecap:butt;stroke-linejoin:miter;stroke:rgb(0%,50%,50%);stroke-opacity:1;stroke-dasharray:2.98883,2.98883;stroke-miterlimit:10;" d="M -26.770438 -8.909156 L 34.604562 26.524438 " transform="matrix(1,0,0,-1,37.622,51.376)"/>
<g clip-path="url(#clip3)" clip-rule="nonzero">
<path style="fill:none;stroke-width:0.99628;stroke-linecap:butt;stroke-linejoin:miter;stroke:rgb(0%,0%,50%);stroke-opacity:1;stroke-miterlimit:10;" d="M 8.417062 34.418969 C -1.750906 40.290063 -16.34075 34.059594 -24.168875 20.501 C -31.997 6.942406 -30.098563 -8.807594 -19.930594 -14.678687 C -9.762625 -20.549781 4.827219 -14.319312 12.655344 -0.760719 C 20.483469 12.797875 18.585031 28.547875 8.417062 34.418969 Z M 8.417062 34.418969 " transform="matrix(1,0,0,-1,37.622,51.376)"/>
</g>
<path style="fill:none;stroke-width:0.3985;stroke-linecap:butt;stroke-linejoin:miter;stroke:rgb(0%,50%,50%);stroke-opacity:1;stroke-dasharray:2.98883,2.98883;stroke-miterlimit:10;" d="M -19.930594 -14.678687 L 15.503 46.692406 " transform="matrix(1,0,0,-1,37.622,51.376)"/>
<path style=" stroke:none;fill-rule:nonzero;fill:rgb(0%,0%,0%);fill-opacity:1;" d="M 26.992188 51.375 C 26.992188 50.984375 26.675781 50.667969 26.285156 50.667969 C 25.890625 50.667969 25.574219 50.984375 25.574219 51.375 C 25.574219 51.765625 25.890625 52.085938 26.285156 52.085938 C 26.675781 52.085938 26.992188 51.765625 26.992188 51.375 Z M 26.992188 51.375 "/>
<path style="fill:none;stroke-width:0.3985;stroke-linecap:butt;stroke-linejoin:miter;stroke:rgb(0%,50%,50%);stroke-opacity:1;stroke-miterlimit:10;" d="M 33.307687 0.001 C 33.307687 7.836938 31.245187 15.536156 27.327219 22.321313 " transform="matrix(1,0,0,-1,37.622,51.376)"/>
<g style="fill:rgb(0%,50%,50%);fill-opacity:1;">
  <use xlink:href="#glyph0-1" x="75.594" y="42.104"/>
  <use xlink:href="#glyph0-2" x="87.300499" y="42.104"/>
</g>
</g>
</svg>
