<?xml version="1.0" encoding="UTF-8" standalone="no"?>
<!-- Created with Inkscape (http://www.inkscape.org/) -->

<svg
   xmlns:dc="http://purl.org/dc/elements/1.1/"
   xmlns:cc="http://creativecommons.org/ns#"
   xmlns:rdf="http://www.w3.org/1999/02/22-rdf-syntax-ns#"
   xmlns:svg="http://www.w3.org/2000/svg"
   xmlns="http://www.w3.org/2000/svg"
   xmlns:sodipodi="http://sodipodi.sourceforge.net/DTD/sodipodi-0.dtd"
   xmlns:inkscape="http://www.inkscape.org/namespaces/inkscape"
   version="1.1"
   id="svg2"
   xml:space="preserve"
   width="365.78"
   height="132"
   viewBox="0 0 365.78 132"
   sodipodi:docname="PNvsPM.svg"
   inkscape:version="0.92.4 5da689c313, 2019-01-14"><metadata
     id="metadata8"><rdf:RDF><cc:Work
         rdf:about=""><dc:format>image/svg+xml</dc:format><dc:type
           rdf:resource="http://purl.org/dc/dcmitype/StillImage" /><dc:title></dc:title></cc:Work></rdf:RDF></metadata><defs
     id="defs6" /><sodipodi:namedview
     pagecolor="#ffffff"
     bordercolor="#666666"
     borderopacity="1"
     objecttolerance="10"
     gridtolerance="10"
     guidetolerance="10"
     inkscape:pageopacity="0"
     inkscape:pageshadow="2"
     inkscape:window-width="1676"
     inkscape:window-height="1026"
     id="namedview4"
     showgrid="false"
     inkscape:zoom="1.1823556"
     inkscape:cx="298.46039"
     inkscape:cy="33.292799"
     inkscape:window-x="0"
     inkscape:window-y="20"
     inkscape:window-maximized="0"
     inkscape:current-layer="g10" /><g
     id="g10"
     inkscape:groupmode="layer"
     inkscape:label="talk"
     transform="matrix(1.3333333,0,0,-1.3333333,0,132.00035)"><g
       id="g16"
       transform="translate(193.4294,-70.975824)"><g
         id="g18"><g
           id="g20"><g
             id="g22" /></g><g
           id="g26"><g
             id="g28" /></g></g><g
         id="g34"
         transform="translate(21.337)"><g
           id="g36"><g
             id="g38"><g
               id="g40" /></g><g
             id="g44"><g
               id="g46" /></g></g><g
           id="g50"
           transform="translate(21.337)"><g
             id="g52"><g
               id="g54"><g
                 id="g56" /></g><g
               id="g60"><g
                 id="g62" /></g></g><g
             id="g68"
             transform="translate(21.336)"><g
               id="g70"><g
                 id="g72"><g
                   id="g74" /></g><g
                 id="g78"><g
                   id="g80" /></g></g><g
               id="g86"
               transform="translate(21.337)"><g
                 id="g88"><g
                   id="g90"><g
                     id="g92" /></g></g><g
                 id="g96"
                 transform="translate(21.337)"><g
                   id="g98"><g
                     id="g100"><g
                       id="g102" /></g></g><g
                   id="g110"
                   transform="translate(-340.075,248.98)" /><g
                   id="g114"
                   transform="translate(-158.658,248.98)" /><g
                   id="g118"
                   transform="translate(-340.075,221.411)" /><g
                   id="g122"
                   transform="translate(-340.075,-12.121)"><g
                     id="g132"
                     transform="translate(75.543,165.551)"><path
                       d="M 0,0 V 13.549"
                       style="fill:none;stroke:#000000;stroke-width:0.398;stroke-linecap:butt;stroke-linejoin:miter;stroke-miterlimit:10;stroke-dasharray:none;stroke-opacity:1"
                       id="path134"
                       inkscape:connector-curvature="0" /></g><text
                     transform="matrix(1,0,0,-1,99.13,169.616)"
                     style="font-variant:normal;font-weight:normal;font-size:10.90909958px;font-family:CMSS10;-inkscape-font-specification:CMSS10;writing-mode:lr-tb;fill:#000000;fill-opacity:1;fill-rule:nonzero;stroke:none"
                     id="text138"><tspan
                       x="0 5.4545498 12.424374 32.685844 38.140396 45.110218 68.317146 73.771698 80.741524 106.31573 111.77027 118.7401"
                       y="0"
                       sodipodi:role="line"
                       id="tspan136">0PN1PN2PN3PN</tspan></text>
<g
                     id="g140"
                     transform="translate(243.437,169.616)"><g
                       id="g142"><g
                         id="g144"><g
                           id="g146"><g
                             id="g148"><g
                               id="g150" /></g></g></g></g><g
                       id="g152"
                       transform="translate(-243.437,-169.616)"><text
                         transform="matrix(1,0,0,-1,243.437,169.616)"
                         style="font-variant:normal;font-weight:normal;font-size:10.90909958px;font-family:CMSS10;-inkscape-font-specification:CMSS10;writing-mode:lr-tb;fill:#000000;fill-opacity:1;fill-rule:nonzero;stroke:none"
                         id="text156"><tspan
                           x="0 5.4545498 12.424374 37.998577 43.453129 50.422951"
                           y="0"
                           sodipodi:role="line"
                           id="tspan154">4PN5PN</tspan></text>
<g
                         id="g158"
                         transform="translate(41.419,163.339)"><path
                           d="M 0,0 H 269.088"
                           style="fill:none;stroke:#000000;stroke-width:0.54500002;stroke-linecap:butt;stroke-linejoin:miter;stroke-miterlimit:10;stroke-dasharray:none;stroke-opacity:1"
                           id="path160"
                           inkscape:connector-curvature="0" /></g><text
                         transform="matrix(1,0,0,-1,47.396,150.43)"
                         style="font-variant:normal;font-weight:normal;font-size:10.90909958px;font-family:CMSS10;-inkscape-font-specification:CMSS10;writing-mode:lr-tb;fill:#000000;fill-opacity:1;fill-rule:nonzero;stroke:none"
                         id="text164"><tspan
                           x="0 5.4545498 12.424374"
                           y="0"
                           sodipodi:role="line"
                           id="tspan162">0PM</tspan></text>
<g
                         id="g166"
                         transform="translate(75.543,144.373)"><path
                           d="M 0,0 V 15.542"
                           style="fill:none;stroke:#000000;stroke-width:0.398;stroke-linecap:butt;stroke-linejoin:miter;stroke-miterlimit:10;stroke-dasharray:none;stroke-opacity:1"
                           id="path168"
                           inkscape:connector-curvature="0" /></g><text
                         transform="matrix(1,0,0,-1,81.72,150.43)"
                         style="font-variant:normal;font-weight:normal;font-size:10.90909958px;font-family:CMSS10;-inkscape-font-specification:CMSS10;writing-mode:lr-tb;fill:#000000;fill-opacity:1;fill-rule:nonzero;stroke:none"
                         id="text172"><tspan
                           x="0"
                           y="0"
                           id="tspan170">1</tspan></text>
<text
                         transform="matrix(1,0,0,-1,103.733,150.43)"
                         style="font-variant:normal;font-weight:normal;font-size:10.90909958px;font-family:CMSSI10;-inkscape-font-specification:CMSSI10;writing-mode:lr-tb;fill:#000000;fill-opacity:1;fill-rule:nonzero;stroke:none"
                         id="text176"><tspan
                           x="0"
                           y="0"
                           id="tspan174">v</tspan></text>
<text
                         transform="matrix(1,0,0,-1,109.945,154.389)"
                         style="font-variant:normal;font-weight:normal;font-size:7.97009993px;font-family:CMSS8;-inkscape-font-specification:CMSS8;writing-mode:lr-tb;fill:#000000;fill-opacity:1;fill-rule:nonzero;stroke:none"
                         id="text180"><tspan
                           x="0"
                           y="0"
                           id="tspan178">2</tspan></text>
<text
                         transform="matrix(1,0,0,-1,136.418,150.43)"
                         style="font-variant:normal;font-weight:normal;font-size:10.90909958px;font-family:CMSSI10;-inkscape-font-specification:CMSSI10;writing-mode:lr-tb;fill:#000000;fill-opacity:1;fill-rule:nonzero;stroke:none"
                         id="text184"><tspan
                           x="0"
                           y="0"
                           id="tspan182">v</tspan></text>
<text
                         transform="matrix(1,0,0,-1,142.631,154.389)"
                         style="font-variant:normal;font-weight:normal;font-size:7.97009993px;font-family:CMSS8;-inkscape-font-specification:CMSS8;writing-mode:lr-tb;fill:#000000;fill-opacity:1;fill-rule:nonzero;stroke:none"
                         id="text188"><tspan
                           x="0"
                           y="0"
                           id="tspan186">4</tspan></text>
<text
                         transform="matrix(1,0,0,-1,172.048,150.43)"
                         style="font-variant:normal;font-weight:normal;font-size:10.90909958px;font-family:CMSSI10;-inkscape-font-specification:CMSSI10;writing-mode:lr-tb;fill:#000000;fill-opacity:1;fill-rule:nonzero;stroke:none"
                         id="text192"><tspan
                           x="0"
                           y="0"
                           id="tspan190">v</tspan></text>
<text
                         transform="matrix(1,0,0,-1,178.261,154.389)"
                         style="font-variant:normal;font-weight:normal;font-size:7.97009993px;font-family:CMSS8;-inkscape-font-specification:CMSS8;writing-mode:lr-tb;fill:#000000;fill-opacity:1;fill-rule:nonzero;stroke:none"
                         id="text196"><tspan
                           x="0"
                           y="0"
                           id="tspan194">6</tspan></text>
<text
                         transform="matrix(1,0,0,-1,210.044,150.43)"
                         style="font-variant:normal;font-weight:normal;font-size:10.90909958px;font-family:CMSSI10;-inkscape-font-specification:CMSSI10;writing-mode:lr-tb;fill:#000000;fill-opacity:1;fill-rule:nonzero;stroke:none"
                         id="text200"><tspan
                           x="0"
                           y="0"
                           id="tspan198">v</tspan></text>
<text
                         transform="matrix(1,0,0,-1,216.257,154.389)"
                         style="font-variant:normal;font-weight:normal;font-size:7.97009993px;font-family:CMSS8;-inkscape-font-specification:CMSS8;writing-mode:lr-tb;fill:#000000;fill-opacity:1;fill-rule:nonzero;stroke:none"
                         id="text204"><tspan
                           x="0"
                           y="0"
                           id="tspan202">8</tspan></text>
<text
                         transform="matrix(1,0,0,-1,245.923,150.43)"
                         style="font-variant:normal;font-weight:normal;font-size:10.90909958px;font-family:CMSSI10;-inkscape-font-specification:CMSSI10;writing-mode:lr-tb;fill:#000000;fill-opacity:1;fill-rule:nonzero;stroke:none"
                         id="text208"><tspan
                           x="0"
                           y="0"
                           id="tspan206">v</tspan></text>
<text
                         transform="matrix(1,0,0,-1,252.136,154.389)"
                         style="font-variant:normal;font-weight:normal;font-size:7.97009993px;font-family:CMSS8;-inkscape-font-specification:CMSS8;writing-mode:lr-tb;fill:#000000;fill-opacity:1;fill-rule:nonzero;stroke:none"
                         id="text212"><tspan
                           x="0 4.2345142"
                           y="0"
                           sodipodi:role="line"
                           id="tspan210">10</tspan></text>
<text
                         transform="matrix(1,0,0,-1,283.919,150.43)"
                         style="font-variant:normal;font-weight:normal;font-size:10.90909958px;font-family:CMSSI10;-inkscape-font-specification:CMSSI10;writing-mode:lr-tb;fill:#000000;fill-opacity:1;fill-rule:nonzero;stroke:none"
                         id="text216"><tspan
                           x="0"
                           y="0"
                           id="tspan214">v</tspan></text>
<text
                         transform="matrix(1,0,0,-1,290.132,154.389)"
                         style="font-variant:normal;font-weight:normal;font-size:7.97009993px;font-family:CMSS8;-inkscape-font-specification:CMSS8;writing-mode:lr-tb;fill:#000000;fill-opacity:1;fill-rule:nonzero;stroke:none"
                         id="text220"><tspan
                           x="0 4.2345142"
                           y="0"
                           sodipodi:role="line"
                           id="tspan218">12</tspan></text>
<text
                         transform="matrix(1,0,0,-1,47.396,134.889)"
                         style="font-variant:normal;font-weight:normal;font-size:10.90909958px;font-family:CMSS10;-inkscape-font-specification:CMSS10;writing-mode:lr-tb;fill:#000000;fill-opacity:1;fill-rule:nonzero;stroke:none"
                         id="text224"><tspan
                           x="0 5.4545498 12.424374"
                           y="0"
                           sodipodi:role="line"
                           id="tspan222">1PM</tspan></text>
<g
                         id="g226"
                         transform="translate(75.543,128.831)"><path
                           d="M 0,0 V 15.542"
                           style="fill:none;stroke:#000000;stroke-width:0.398;stroke-linecap:butt;stroke-linejoin:miter;stroke-miterlimit:10;stroke-dasharray:none;stroke-opacity:1"
                           id="path228"
                           inkscape:connector-curvature="0" /></g><text
                         transform="matrix(1,0,0,-1,101.296,134.889)"
                         style="font-variant:normal;font-weight:normal;font-size:10.90909958px;font-family:CMSS10;-inkscape-font-specification:CMSS10;writing-mode:lr-tb;fill:#000000;fill-opacity:1;fill-rule:nonzero;stroke:none"
                         id="text232"><tspan
                           x="0"
                           y="0"
                           id="tspan230">1</tspan></text>
<text
                         transform="matrix(1,0,0,-1,106.751,134.889)"
                         style="font-variant:normal;font-weight:normal;font-size:10.90909958px;font-family:CMMI10;-inkscape-font-specification:CMMI10;writing-mode:lr-tb;fill:#000000;fill-opacity:1;fill-rule:nonzero;stroke:none"
                         id="text236"><tspan
                           x="0"
                           y="0"
                           id="tspan234">/</tspan></text>
<text
                         transform="matrix(1,0,0,-1,112.205,134.889)"
                         style="font-variant:normal;font-weight:normal;font-size:10.90909958px;font-family:CMSSI10;-inkscape-font-specification:CMSSI10;writing-mode:lr-tb;fill:#000000;fill-opacity:1;fill-rule:nonzero;stroke:none"
                         id="text240"><tspan
                           x="0 19.033106"
                           y="0"
                           sodipodi:role="line"
                           id="tspan238">rv</tspan></text>
<text
                         transform="matrix(1,0,0,-1,137.449,138.848)"
                         style="font-variant:normal;font-weight:normal;font-size:7.97009993px;font-family:CMSS8;-inkscape-font-specification:CMSS8;writing-mode:lr-tb;fill:#000000;fill-opacity:1;fill-rule:nonzero;stroke:none"
                         id="text244"><tspan
                           x="0"
                           y="0"
                           id="tspan242">2</tspan></text>
<text
                         transform="matrix(1,0,0,-1,142.181,134.889)"
                         style="font-variant:normal;font-weight:normal;font-size:10.90909958px;font-family:CMMI10;-inkscape-font-specification:CMMI10;writing-mode:lr-tb;fill:#000000;fill-opacity:1;fill-rule:nonzero;stroke:none"
                         id="text248"><tspan
                           x="0"
                           y="0"
                           id="tspan246">/</tspan></text>
<text
                         transform="matrix(1,0,0,-1,147.636,134.889)"
                         style="font-variant:normal;font-weight:normal;font-size:10.90909958px;font-family:CMSSI10;-inkscape-font-specification:CMSSI10;writing-mode:lr-tb;fill:#000000;fill-opacity:1;fill-rule:nonzero;stroke:none"
                         id="text252"><tspan
                           x="0 19.229471"
                           y="0"
                           sodipodi:role="line"
                           id="tspan250">rv</tspan></text>
<text
                         transform="matrix(1,0,0,-1,173.079,138.848)"
                         style="font-variant:normal;font-weight:normal;font-size:7.97009993px;font-family:CMSS8;-inkscape-font-specification:CMSS8;writing-mode:lr-tb;fill:#000000;fill-opacity:1;fill-rule:nonzero;stroke:none"
                         id="text256"><tspan
                           x="0"
                           y="0"
                           id="tspan254">4</tspan></text>
<text
                         transform="matrix(1,0,0,-1,177.811,134.889)"
                         style="font-variant:normal;font-weight:normal;font-size:10.90909958px;font-family:CMMI10;-inkscape-font-specification:CMMI10;writing-mode:lr-tb;fill:#000000;fill-opacity:1;fill-rule:nonzero;stroke:none"
                         id="text260"><tspan
                           x="0"
                           y="0"
                           id="tspan258">/</tspan></text>
<text
                         transform="matrix(1,0,0,-1,183.265,134.889)"
                         style="font-variant:normal;font-weight:normal;font-size:10.90909958px;font-family:CMSSI10;-inkscape-font-specification:CMSSI10;writing-mode:lr-tb;fill:#000000;fill-opacity:1;fill-rule:nonzero;stroke:none"
                         id="text264"><tspan
                           x="0 21.596745"
                           y="0"
                           sodipodi:role="line"
                           id="tspan262">rv</tspan></text>
<text
                         transform="matrix(1,0,0,-1,211.075,138.848)"
                         style="font-variant:normal;font-weight:normal;font-size:7.97009993px;font-family:CMSS8;-inkscape-font-specification:CMSS8;writing-mode:lr-tb;fill:#000000;fill-opacity:1;fill-rule:nonzero;stroke:none"
                         id="text268"><tspan
                           x="0"
                           y="0"
                           id="tspan266">6</tspan></text>
<text
                         transform="matrix(1,0,0,-1,215.807,134.889)"
                         style="font-variant:normal;font-weight:normal;font-size:10.90909958px;font-family:CMMI10;-inkscape-font-specification:CMMI10;writing-mode:lr-tb;fill:#000000;fill-opacity:1;fill-rule:nonzero;stroke:none"
                         id="text272"><tspan
                           x="0"
                           y="0"
                           id="tspan270">/</tspan></text>
<text
                         transform="matrix(1,0,0,-1,221.262,134.889)"
                         style="font-variant:normal;font-weight:normal;font-size:10.90909958px;font-family:CMSSI10;-inkscape-font-specification:CMSSI10;writing-mode:lr-tb;fill:#000000;fill-opacity:1;fill-rule:nonzero;stroke:none"
                         id="text276"><tspan
                           x="0 21.596745"
                           y="0"
                           sodipodi:role="line"
                           id="tspan274">rv</tspan></text>
<text
                         transform="matrix(1,0,0,-1,249.071,138.848)"
                         style="font-variant:normal;font-weight:normal;font-size:7.97009993px;font-family:CMSS8;-inkscape-font-specification:CMSS8;writing-mode:lr-tb;fill:#000000;fill-opacity:1;fill-rule:nonzero;stroke:none"
                         id="text280"><tspan
                           x="0"
                           y="0"
                           id="tspan278">8</tspan></text>
<text
                         transform="matrix(1,0,0,-1,253.803,134.889)"
                         style="font-variant:normal;font-weight:normal;font-size:10.90909958px;font-family:CMMI10;-inkscape-font-specification:CMMI10;writing-mode:lr-tb;fill:#000000;fill-opacity:1;fill-rule:nonzero;stroke:none"
                         id="text284"><tspan
                           x="0"
                           y="0"
                           id="tspan282">/</tspan></text>
<text
                         transform="matrix(1,0,0,-1,259.258,134.889)"
                         style="font-variant:normal;font-weight:normal;font-size:10.90909958px;font-family:CMSSI10;-inkscape-font-specification:CMSSI10;writing-mode:lr-tb;fill:#000000;fill-opacity:1;fill-rule:nonzero;stroke:none"
                         id="text288"><tspan
                           x="0 19.480379"
                           y="0"
                           sodipodi:role="line"
                           id="tspan286">rv</tspan></text>
<text
                         transform="matrix(1,0,0,-1,284.95,138.848)"
                         style="font-variant:normal;font-weight:normal;font-size:7.97009993px;font-family:CMSS8;-inkscape-font-specification:CMSS8;writing-mode:lr-tb;fill:#000000;fill-opacity:1;fill-rule:nonzero;stroke:none"
                         id="text292"><tspan
                           x="0 4.2345142"
                           y="0"
                           sodipodi:role="line"
                           id="tspan290">10</tspan></text>
<text
                         transform="matrix(1,0,0,-1,293.916,134.889)"
                         style="font-variant:normal;font-weight:normal;font-size:10.90909958px;font-family:CMMI10;-inkscape-font-specification:CMMI10;writing-mode:lr-tb;fill:#000000;fill-opacity:1;fill-rule:nonzero;stroke:none"
                         id="text296"><tspan
                           x="0"
                           y="0"
                           id="tspan294">/</tspan></text>
<text
                         transform="matrix(1,0,0,-1,299.371,134.889)"
                         style="font-variant:normal;font-weight:normal;font-size:10.90909958px;font-family:CMSSI10;-inkscape-font-specification:CMSSI10;writing-mode:lr-tb;fill:#000000;fill-opacity:1;fill-rule:nonzero;stroke:none"
                         id="text300"><tspan
                           x="0"
                           y="0"
                           id="tspan298">r</tspan></text>
<text
                         transform="matrix(1,0,0,-1,47.396,119.347)"
                         style="font-variant:normal;font-weight:normal;font-size:10.90909958px;font-family:CMSS10;-inkscape-font-specification:CMSS10;writing-mode:lr-tb;fill:#000000;fill-opacity:1;fill-rule:nonzero;stroke:none"
                         id="text304"><tspan
                           x="0 5.4545498 12.424374"
                           y="0"
                           sodipodi:role="line"
                           id="tspan302">2PM</tspan></text>
<g
                         id="g306"
                         transform="translate(75.543,113.29)"><path
                           d="M 0,0 V 15.542"
                           style="fill:none;stroke:#000000;stroke-width:0.398;stroke-linecap:butt;stroke-linejoin:miter;stroke-miterlimit:10;stroke-dasharray:none;stroke-opacity:1"
                           id="path308"
                           inkscape:connector-curvature="0" /></g><text
                         transform="matrix(1,0,0,-1,131.615,119.347)"
                         style="font-variant:normal;font-weight:normal;font-size:10.90909958px;font-family:CMSS10;-inkscape-font-specification:CMSS10;writing-mode:lr-tb;fill:#000000;fill-opacity:1;fill-rule:nonzero;stroke:none"
                         id="text312"><tspan
                           x="0"
                           y="0"
                           id="tspan310">1</tspan></text>
<text
                         transform="matrix(1,0,0,-1,137.07,119.347)"
                         style="font-variant:normal;font-weight:normal;font-size:10.90909958px;font-family:CMMI10;-inkscape-font-specification:CMMI10;writing-mode:lr-tb;fill:#000000;fill-opacity:1;fill-rule:nonzero;stroke:none"
                         id="text316"><tspan
                           x="0"
                           y="0"
                           id="tspan314">/</tspan></text>
<text
                         transform="matrix(1,0,0,-1,142.524,119.347)"
                         style="font-variant:normal;font-weight:normal;font-size:10.90909958px;font-family:CMSSI10;-inkscape-font-specification:CMSSI10;writing-mode:lr-tb;fill:#000000;fill-opacity:1;fill-rule:nonzero;stroke:none"
                         id="text320"><tspan
                           x="0"
                           y="0"
                           id="tspan318">r</tspan></text>
<text
                         transform="matrix(1,0,0,-1,147.434,123.306)"
                         style="font-variant:normal;font-weight:normal;font-size:7.97009993px;font-family:CMSS8;-inkscape-font-specification:CMSS8;writing-mode:lr-tb;fill:#000000;fill-opacity:1;fill-rule:nonzero;stroke:none"
                         id="text324"><tspan
                           x="0"
                           y="0"
                           id="tspan322">2</tspan></text>
<text
                         transform="matrix(1,0,0,-1,164.5,119.347)"
                         style="font-variant:normal;font-weight:normal;font-size:10.90909958px;font-family:CMSSI10;-inkscape-font-specification:CMSSI10;writing-mode:lr-tb;fill:#000000;fill-opacity:1;fill-rule:nonzero;stroke:none"
                         id="text328"><tspan
                           x="0"
                           y="0"
                           id="tspan326">v</tspan></text>
<text
                         transform="matrix(1,0,0,-1,170.712,123.306)"
                         style="font-variant:normal;font-weight:normal;font-size:7.97009993px;font-family:CMSS8;-inkscape-font-specification:CMSS8;writing-mode:lr-tb;fill:#000000;fill-opacity:1;fill-rule:nonzero;stroke:none"
                         id="text332"><tspan
                           x="0"
                           y="0"
                           id="tspan330">2</tspan></text>
<text
                         transform="matrix(1,0,0,-1,175.445,119.347)"
                         style="font-variant:normal;font-weight:normal;font-size:10.90909958px;font-family:CMMI10;-inkscape-font-specification:CMMI10;writing-mode:lr-tb;fill:#000000;fill-opacity:1;fill-rule:nonzero;stroke:none"
                         id="text336"><tspan
                           x="0"
                           y="0"
                           id="tspan334">/</tspan></text>
<text
                         transform="matrix(1,0,0,-1,180.899,119.347)"
                         style="font-variant:normal;font-weight:normal;font-size:10.90909958px;font-family:CMSSI10;-inkscape-font-specification:CMSSI10;writing-mode:lr-tb;fill:#000000;fill-opacity:1;fill-rule:nonzero;stroke:none"
                         id="text340"><tspan
                           x="0"
                           y="0"
                           id="tspan338">r</tspan></text>
<text
                         transform="matrix(1,0,0,-1,185.809,123.306)"
                         style="font-variant:normal;font-weight:normal;font-size:7.97009993px;font-family:CMSS8;-inkscape-font-specification:CMSS8;writing-mode:lr-tb;fill:#000000;fill-opacity:1;fill-rule:nonzero;stroke:none"
                         id="text344"><tspan
                           x="0"
                           y="0"
                           id="tspan342">2</tspan></text>
<text
                         transform="matrix(1,0,0,-1,202.496,119.347)"
                         style="font-variant:normal;font-weight:normal;font-size:10.90909958px;font-family:CMSSI10;-inkscape-font-specification:CMSSI10;writing-mode:lr-tb;fill:#000000;fill-opacity:1;fill-rule:nonzero;stroke:none"
                         id="text348"><tspan
                           x="0"
                           y="0"
                           id="tspan346">v</tspan></text>
<text
                         transform="matrix(1,0,0,-1,208.709,123.306)"
                         style="font-variant:normal;font-weight:normal;font-size:7.97009993px;font-family:CMSS8;-inkscape-font-specification:CMSS8;writing-mode:lr-tb;fill:#000000;fill-opacity:1;fill-rule:nonzero;stroke:none"
                         id="text352"><tspan
                           x="0"
                           y="0"
                           id="tspan350">4</tspan></text>
<text
                         transform="matrix(1,0,0,-1,213.441,119.347)"
                         style="font-variant:normal;font-weight:normal;font-size:10.90909958px;font-family:CMMI10;-inkscape-font-specification:CMMI10;writing-mode:lr-tb;fill:#000000;fill-opacity:1;fill-rule:nonzero;stroke:none"
                         id="text356"><tspan
                           x="0"
                           y="0"
                           id="tspan354">/</tspan></text>
<text
                         transform="matrix(1,0,0,-1,218.895,119.347)"
                         style="font-variant:normal;font-weight:normal;font-size:10.90909958px;font-family:CMSSI10;-inkscape-font-specification:CMSSI10;writing-mode:lr-tb;fill:#000000;fill-opacity:1;fill-rule:nonzero;stroke:none"
                         id="text360"><tspan
                           x="0"
                           y="0"
                           id="tspan358">r</tspan></text>
<text
                         transform="matrix(1,0,0,-1,223.805,123.306)"
                         style="font-variant:normal;font-weight:normal;font-size:7.97009993px;font-family:CMSS8;-inkscape-font-specification:CMSS8;writing-mode:lr-tb;fill:#000000;fill-opacity:1;fill-rule:nonzero;stroke:none"
                         id="text364"><tspan
                           x="0"
                           y="0"
                           id="tspan362">2</tspan></text>
<text
                         transform="matrix(1,0,0,-1,240.492,119.347)"
                         style="font-variant:normal;font-weight:normal;font-size:10.90909958px;font-family:CMSSI10;-inkscape-font-specification:CMSSI10;writing-mode:lr-tb;fill:#000000;fill-opacity:1;fill-rule:nonzero;stroke:none"
                         id="text368"><tspan
                           x="0"
                           y="0"
                           id="tspan366">v</tspan></text>
<text
                         transform="matrix(1,0,0,-1,246.705,123.306)"
                         style="font-variant:normal;font-weight:normal;font-size:7.97009993px;font-family:CMSS8;-inkscape-font-specification:CMSS8;writing-mode:lr-tb;fill:#000000;fill-opacity:1;fill-rule:nonzero;stroke:none"
                         id="text372"><tspan
                           x="0"
                           y="0"
                           id="tspan370">6</tspan></text>
<text
                         transform="matrix(1,0,0,-1,251.437,119.347)"
                         style="font-variant:normal;font-weight:normal;font-size:10.90909958px;font-family:CMMI10;-inkscape-font-specification:CMMI10;writing-mode:lr-tb;fill:#000000;fill-opacity:1;fill-rule:nonzero;stroke:none"
                         id="text376"><tspan
                           x="0"
                           y="0"
                           id="tspan374">/</tspan></text>
<text
                         transform="matrix(1,0,0,-1,256.892,119.347)"
                         style="font-variant:normal;font-weight:normal;font-size:10.90909958px;font-family:CMSSI10;-inkscape-font-specification:CMSSI10;writing-mode:lr-tb;fill:#000000;fill-opacity:1;fill-rule:nonzero;stroke:none"
                         id="text380"><tspan
                           x="0"
                           y="0"
                           id="tspan378">r</tspan></text>
<text
                         transform="matrix(1,0,0,-1,261.801,123.306)"
                         style="font-variant:normal;font-weight:normal;font-size:7.97009993px;font-family:CMSS8;-inkscape-font-specification:CMSS8;writing-mode:lr-tb;fill:#000000;fill-opacity:1;fill-rule:nonzero;stroke:none"
                         id="text384"><tspan
                           x="0"
                           y="0"
                           id="tspan382">2</tspan></text>
<text
                         transform="matrix(1,0,0,-1,278.488,119.347)"
                         style="font-variant:normal;font-weight:normal;font-size:10.90909958px;font-family:CMSSI10;-inkscape-font-specification:CMSSI10;writing-mode:lr-tb;fill:#000000;fill-opacity:1;fill-rule:nonzero;stroke:none"
                         id="text388"><tspan
                           x="0"
                           y="0"
                           id="tspan386">v</tspan></text>
<text
                         transform="matrix(1,0,0,-1,284.701,123.306)"
                         style="font-variant:normal;font-weight:normal;font-size:7.97009993px;font-family:CMSS8;-inkscape-font-specification:CMSS8;writing-mode:lr-tb;fill:#000000;fill-opacity:1;fill-rule:nonzero;stroke:none"
                         id="text392"><tspan
                           x="0"
                           y="0"
                           id="tspan390">8</tspan></text>
<text
                         transform="matrix(1,0,0,-1,289.433,119.347)"
                         style="font-variant:normal;font-weight:normal;font-size:10.90909958px;font-family:CMMI10;-inkscape-font-specification:CMMI10;writing-mode:lr-tb;fill:#000000;fill-opacity:1;fill-rule:nonzero;stroke:none"
                         id="text396"><tspan
                           x="0"
                           y="0"
                           id="tspan394">/</tspan></text>
<text
                         transform="matrix(1,0,0,-1,294.888,119.347)"
                         style="font-variant:normal;font-weight:normal;font-size:10.90909958px;font-family:CMSSI10;-inkscape-font-specification:CMSSI10;writing-mode:lr-tb;fill:#000000;fill-opacity:1;fill-rule:nonzero;stroke:none"
                         id="text400"><tspan
                           x="0"
                           y="0"
                           id="tspan398">r</tspan></text>
<text
                         transform="matrix(1,0,0,-1,299.797,123.306)"
                         style="font-variant:normal;font-weight:normal;font-size:7.97009993px;font-family:CMSS8;-inkscape-font-specification:CMSS8;writing-mode:lr-tb;fill:#000000;fill-opacity:1;fill-rule:nonzero;stroke:none"
                         id="text404"><tspan
                           x="0"
                           y="0"
                           id="tspan402">2</tspan></text>
<g
                         id="g406"
                         transform="translate(47.396,103.805)"><g
                           id="g408"><g
                             id="g410"><g
                               id="g412"><g
                                 id="g414"><g
                                   id="g416" /></g></g></g></g><g
                           id="g418"
                           transform="translate(-47.396,-103.805)"><text
                             transform="matrix(1,0,0,-1,47.396,103.805)"
                             style="font-variant:normal;font-weight:normal;font-size:10.90909958px;font-family:CMSS10;-inkscape-font-specification:CMSS10;writing-mode:lr-tb;fill:#000000;fill-opacity:1;fill-rule:nonzero;stroke:none"
                             id="text422"><tspan
                               x="0 5.4545498 12.424374"
                               y="0"
                               sodipodi:role="line"
                               id="tspan420">3PM</tspan></text>
<g
                             id="g424"
                             transform="translate(75.543,97.748)"><path
                               d="M 0,0 V 15.542"
                               style="fill:none;stroke:#000000;stroke-width:0.398;stroke-linecap:butt;stroke-linejoin:miter;stroke-miterlimit:10;stroke-dasharray:none;stroke-opacity:1"
                               id="path426"
                               inkscape:connector-curvature="0" /></g><text
                             transform="matrix(1,0,0,-1,167.245,103.805)"
                             style="font-variant:normal;font-weight:normal;font-size:10.90909958px;font-family:CMSS10;-inkscape-font-specification:CMSS10;writing-mode:lr-tb;fill:#000000;fill-opacity:1;fill-rule:nonzero;stroke:none"
                             id="text430"><tspan
                               x="0"
                               y="0"
                               id="tspan428">1</tspan></text>
<text
                             transform="matrix(1,0,0,-1,172.7,103.805)"
                             style="font-variant:normal;font-weight:normal;font-size:10.90909958px;font-family:CMMI10;-inkscape-font-specification:CMMI10;writing-mode:lr-tb;fill:#000000;fill-opacity:1;fill-rule:nonzero;stroke:none"
                             id="text434"><tspan
                               x="0"
                               y="0"
                               id="tspan432">/</tspan></text>
<text
                             transform="matrix(1,0,0,-1,178.154,103.805)"
                             style="font-variant:normal;font-weight:normal;font-size:10.90909958px;font-family:CMSSI10;-inkscape-font-specification:CMSSI10;writing-mode:lr-tb;fill:#000000;fill-opacity:1;fill-rule:nonzero;stroke:none"
                             id="text438"><tspan
                               x="0"
                               y="0"
                               id="tspan436">r</tspan></text>
<text
                             transform="matrix(1,0,0,-1,183.064,107.764)"
                             style="font-variant:normal;font-weight:normal;font-size:7.97009993px;font-family:CMSS8;-inkscape-font-specification:CMSS8;writing-mode:lr-tb;fill:#000000;fill-opacity:1;fill-rule:nonzero;stroke:none"
                             id="text442"><tspan
                               x="0"
                               y="0"
                               id="tspan440">3</tspan></text>
<text
                             transform="matrix(1,0,0,-1,202.496,103.805)"
                             style="font-variant:normal;font-weight:normal;font-size:10.90909958px;font-family:CMSSI10;-inkscape-font-specification:CMSSI10;writing-mode:lr-tb;fill:#000000;fill-opacity:1;fill-rule:nonzero;stroke:none"
                             id="text446"><tspan
                               x="0"
                               y="0"
                               id="tspan444">v</tspan></text>
<text
                             transform="matrix(1,0,0,-1,208.709,107.764)"
                             style="font-variant:normal;font-weight:normal;font-size:7.97009993px;font-family:CMSS8;-inkscape-font-specification:CMSS8;writing-mode:lr-tb;fill:#000000;fill-opacity:1;fill-rule:nonzero;stroke:none"
                             id="text450"><tspan
                               x="0"
                               y="0"
                               id="tspan448">2</tspan></text>
<text
                             transform="matrix(1,0,0,-1,213.441,103.805)"
                             style="font-variant:normal;font-weight:normal;font-size:10.90909958px;font-family:CMMI10;-inkscape-font-specification:CMMI10;writing-mode:lr-tb;fill:#000000;fill-opacity:1;fill-rule:nonzero;stroke:none"
                             id="text454"><tspan
                               x="0"
                               y="0"
                               id="tspan452">/</tspan></text>
<text
                             transform="matrix(1,0,0,-1,218.895,103.805)"
                             style="font-variant:normal;font-weight:normal;font-size:10.90909958px;font-family:CMSSI10;-inkscape-font-specification:CMSSI10;writing-mode:lr-tb;fill:#000000;fill-opacity:1;fill-rule:nonzero;stroke:none"
                             id="text458"><tspan
                               x="0"
                               y="0"
                               id="tspan456">r</tspan></text>
<text
                             transform="matrix(1,0,0,-1,223.805,107.764)"
                             style="font-variant:normal;font-weight:normal;font-size:7.97009993px;font-family:CMSS8;-inkscape-font-specification:CMSS8;writing-mode:lr-tb;fill:#000000;fill-opacity:1;fill-rule:nonzero;stroke:none"
                             id="text462"><tspan
                               x="0"
                               y="0"
                               id="tspan460">3</tspan></text>
<text
                             transform="matrix(1,0,0,-1,240.492,103.805)"
                             style="font-variant:normal;font-weight:normal;font-size:10.90909958px;font-family:CMSSI10;-inkscape-font-specification:CMSSI10;writing-mode:lr-tb;fill:#000000;fill-opacity:1;fill-rule:nonzero;stroke:none"
                             id="text466"><tspan
                               x="0"
                               y="0"
                               id="tspan464">v</tspan></text>
<text
                             transform="matrix(1,0,0,-1,246.705,107.764)"
                             style="font-variant:normal;font-weight:normal;font-size:7.97009993px;font-family:CMSS8;-inkscape-font-specification:CMSS8;writing-mode:lr-tb;fill:#000000;fill-opacity:1;fill-rule:nonzero;stroke:none"
                             id="text470"><tspan
                               x="0"
                               y="0"
                               id="tspan468">4</tspan></text>
<text
                             transform="matrix(1,0,0,-1,251.437,103.805)"
                             style="font-variant:normal;font-weight:normal;font-size:10.90909958px;font-family:CMMI10;-inkscape-font-specification:CMMI10;writing-mode:lr-tb;fill:#000000;fill-opacity:1;fill-rule:nonzero;stroke:none"
                             id="text474"><tspan
                               x="0"
                               y="0"
                               id="tspan472">/</tspan></text>
<text
                             transform="matrix(1,0,0,-1,256.892,103.805)"
                             style="font-variant:normal;font-weight:normal;font-size:10.90909958px;font-family:CMSSI10;-inkscape-font-specification:CMSSI10;writing-mode:lr-tb;fill:#000000;fill-opacity:1;fill-rule:nonzero;stroke:none"
                             id="text478"><tspan
                               x="0"
                               y="0"
                               id="tspan476">r</tspan></text>
<text
                             transform="matrix(1,0,0,-1,261.801,107.764)"
                             style="font-variant:normal;font-weight:normal;font-size:7.97009993px;font-family:CMSS8;-inkscape-font-specification:CMSS8;writing-mode:lr-tb;fill:#000000;fill-opacity:1;fill-rule:nonzero;stroke:none"
                             id="text482"><tspan
                               x="0"
                               y="0"
                               id="tspan480">3</tspan></text>
<text
                             transform="matrix(1,0,0,-1,278.488,103.805)"
                             style="font-variant:normal;font-weight:normal;font-size:10.90909958px;font-family:CMSSI10;-inkscape-font-specification:CMSSI10;writing-mode:lr-tb;fill:#000000;fill-opacity:1;fill-rule:nonzero;stroke:none"
                             id="text486"><tspan
                               x="0"
                               y="0"
                               id="tspan484">v</tspan></text>
<text
                             transform="matrix(1,0,0,-1,284.701,107.764)"
                             style="font-variant:normal;font-weight:normal;font-size:7.97009993px;font-family:CMSS8;-inkscape-font-specification:CMSS8;writing-mode:lr-tb;fill:#000000;fill-opacity:1;fill-rule:nonzero;stroke:none"
                             id="text490"><tspan
                               x="0"
                               y="0"
                               id="tspan488">6</tspan></text>
<text
                             transform="matrix(1,0,0,-1,289.433,103.805)"
                             style="font-variant:normal;font-weight:normal;font-size:10.90909958px;font-family:CMMI10;-inkscape-font-specification:CMMI10;writing-mode:lr-tb;fill:#000000;fill-opacity:1;fill-rule:nonzero;stroke:none"
                             id="text494"><tspan
                               x="0"
                               y="0"
                               id="tspan492">/</tspan></text>
<text
                             transform="matrix(1,0,0,-1,294.888,103.805)"
                             style="font-variant:normal;font-weight:normal;font-size:10.90909958px;font-family:CMSSI10;-inkscape-font-specification:CMSSI10;writing-mode:lr-tb;fill:#000000;fill-opacity:1;fill-rule:nonzero;stroke:none"
                             id="text498"><tspan
                               x="0"
                               y="0"
                               id="tspan496">r</tspan></text>
<text
                             transform="matrix(1,0,0,-1,299.797,107.764)"
                             style="font-variant:normal;font-weight:normal;font-size:7.97009993px;font-family:CMSS8;-inkscape-font-specification:CMSS8;writing-mode:lr-tb;fill:#000000;fill-opacity:1;fill-rule:nonzero;stroke:none"
                             id="text502"><tspan
                               x="0"
                               y="0"
                               id="tspan500">3</tspan></text>
<g
                             id="g504"
                             transform="translate(304.529,103.805)"><g
                               id="g506"><g
                                 id="g508"><g
                                   id="g510"><g
                                   id="g512"><g
                                   id="g514" /></g></g></g></g><g
                               id="g516"
                               transform="translate(-304.529,-103.805)"><text
                                 transform="matrix(1,0,0,-1,47.396,88.264)"
                                 style="font-variant:normal;font-weight:normal;font-size:10.90909958px;font-family:CMSS10;-inkscape-font-specification:CMSS10;writing-mode:lr-tb;fill:#000000;fill-opacity:1;fill-rule:nonzero;stroke:none"
                                 id="text520"><tspan
                                   x="0 5.4545498 12.424374"
                                   y="0"
                                   sodipodi:role="line"
                                   id="tspan518">4PM</tspan></text>
<g
                                 id="g522"
                                 transform="translate(75.543,84.199)"><path
                                   d="M 0,0 V 13.549"
                                   style="fill:none;stroke:#000000;stroke-width:0.398;stroke-linecap:butt;stroke-linejoin:miter;stroke-miterlimit:10;stroke-dasharray:none;stroke-opacity:1"
                                   id="path524"
                                   inkscape:connector-curvature="0" /></g><text
                                 transform="matrix(1,0,0,-1,205.241,88.264)"
                                 style="font-variant:normal;font-weight:normal;font-size:10.90909958px;font-family:CMSS10;-inkscape-font-specification:CMSS10;writing-mode:lr-tb;fill:#000000;fill-opacity:1;fill-rule:nonzero;stroke:none"
                                 id="text528"><tspan
                                   x="0"
                                   y="0"
                                   id="tspan526">1</tspan></text>
<text
                                 transform="matrix(1,0,0,-1,210.696,88.264)"
                                 style="font-variant:normal;font-weight:normal;font-size:10.90909958px;font-family:CMMI10;-inkscape-font-specification:CMMI10;writing-mode:lr-tb;fill:#000000;fill-opacity:1;fill-rule:nonzero;stroke:none"
                                 id="text532"><tspan
                                   x="0"
                                   y="0"
                                   id="tspan530">/</tspan></text>
<text
                                 transform="matrix(1,0,0,-1,216.15,88.264)"
                                 style="font-variant:normal;font-weight:normal;font-size:10.90909958px;font-family:CMSSI10;-inkscape-font-specification:CMSSI10;writing-mode:lr-tb;fill:#000000;fill-opacity:1;fill-rule:nonzero;stroke:none"
                                 id="text536"><tspan
                                   x="0"
                                   y="0"
                                   id="tspan534">r</tspan></text>
<text
                                 transform="matrix(1,0,0,-1,221.06,92.222)"
                                 style="font-variant:normal;font-weight:normal;font-size:7.97009993px;font-family:CMSS8;-inkscape-font-specification:CMSS8;writing-mode:lr-tb;fill:#000000;fill-opacity:1;fill-rule:nonzero;stroke:none"
                                 id="text540"><tspan
                                   x="0"
                                   y="0"
                                   id="tspan538">4</tspan></text>
<text
                                 transform="matrix(1,0,0,-1,240.492,88.264)"
                                 style="font-variant:normal;font-weight:normal;font-size:10.90909958px;font-family:CMSSI10;-inkscape-font-specification:CMSSI10;writing-mode:lr-tb;fill:#000000;fill-opacity:1;fill-rule:nonzero;stroke:none"
                                 id="text544"><tspan
                                   x="0"
                                   y="0"
                                   id="tspan542">v</tspan></text>
<text
                                 transform="matrix(1,0,0,-1,246.705,92.222)"
                                 style="font-variant:normal;font-weight:normal;font-size:7.97009993px;font-family:CMSS8;-inkscape-font-specification:CMSS8;writing-mode:lr-tb;fill:#000000;fill-opacity:1;fill-rule:nonzero;stroke:none"
                                 id="text548"><tspan
                                   x="0"
                                   y="0"
                                   id="tspan546">2</tspan></text>
<text
                                 transform="matrix(1,0,0,-1,251.437,88.264)"
                                 style="font-variant:normal;font-weight:normal;font-size:10.90909958px;font-family:CMMI10;-inkscape-font-specification:CMMI10;writing-mode:lr-tb;fill:#000000;fill-opacity:1;fill-rule:nonzero;stroke:none"
                                 id="text552"><tspan
                                   x="0"
                                   y="0"
                                   id="tspan550">/</tspan></text>
<text
                                 transform="matrix(1,0,0,-1,256.892,88.264)"
                                 style="font-variant:normal;font-weight:normal;font-size:10.90909958px;font-family:CMSSI10;-inkscape-font-specification:CMSSI10;writing-mode:lr-tb;fill:#000000;fill-opacity:1;fill-rule:nonzero;stroke:none"
                                 id="text556"><tspan
                                   x="0"
                                   y="0"
                                   id="tspan554">r</tspan></text>
<text
                                 transform="matrix(1,0,0,-1,261.801,92.222)"
                                 style="font-variant:normal;font-weight:normal;font-size:7.97009993px;font-family:CMSS8;-inkscape-font-specification:CMSS8;writing-mode:lr-tb;fill:#000000;fill-opacity:1;fill-rule:nonzero;stroke:none"
                                 id="text560"><tspan
                                   x="0"
                                   y="0"
                                   id="tspan558">4</tspan></text>
<g
                                 id="g562"
                                 transform="translate(266.533,88.264)"><g
                                   id="g564"><g
                                   id="g566"><g
                                   id="g568"><g
                                   id="g570"><g
                                   id="g572" /></g></g></g></g><g
                                   id="g574"
                                   transform="translate(-266.533,-88.264)"><text
                                   transform="matrix(1,0,0,-1,278.488,88.264)"
                                   style="font-variant:normal;font-weight:normal;font-size:10.90909958px;font-family:CMSSI10;-inkscape-font-specification:CMSSI10;writing-mode:lr-tb;fill:#000000;fill-opacity:1;fill-rule:nonzero;stroke:none"
                                   id="text578"><tspan
                                   x="0"
                                   y="0"
                                   id="tspan576">v</tspan></text>
<text
                                   transform="matrix(1,0,0,-1,284.701,92.222)"
                                   style="font-variant:normal;font-weight:normal;font-size:7.97009993px;font-family:CMSS8;-inkscape-font-specification:CMSS8;writing-mode:lr-tb;fill:#000000;fill-opacity:1;fill-rule:nonzero;stroke:none"
                                   id="text582"><tspan
                                   x="0"
                                   y="0"
                                   id="tspan580">4</tspan></text>
<text
                                   transform="matrix(1,0,0,-1,289.433,88.264)"
                                   style="font-variant:normal;font-weight:normal;font-size:10.90909958px;font-family:CMMI10;-inkscape-font-specification:CMMI10;writing-mode:lr-tb;fill:#000000;fill-opacity:1;fill-rule:nonzero;stroke:none"
                                   id="text586"><tspan
                                   x="0"
                                   y="0"
                                   id="tspan584">/</tspan></text>
<text
                                   transform="matrix(1,0,0,-1,294.888,88.264)"
                                   style="font-variant:normal;font-weight:normal;font-size:10.90909958px;font-family:CMSSI10;-inkscape-font-specification:CMSSI10;writing-mode:lr-tb;fill:#000000;fill-opacity:1;fill-rule:nonzero;stroke:none"
                                   id="text590"><tspan
                                   x="0"
                                   y="0"
                                   id="tspan588">r</tspan></text>
<text
                                   transform="matrix(1,0,0,-1,299.797,92.222)"
                                   style="font-variant:normal;font-weight:normal;font-size:7.97009993px;font-family:CMSS8;-inkscape-font-specification:CMSS8;writing-mode:lr-tb;fill:#000000;fill-opacity:1;fill-rule:nonzero;stroke:none"
                                   id="text594"><tspan
                                   x="0"
                                   y="0"
                                   id="tspan592">4</tspan></text>
<g
                                   id="g596"
                                   transform="translate(314.143,128.922)"><g
                                   id="g598"><g
                                   id="g600"><g
                                   id="g602"><path
                                   d="m -76.16185,50.3912 v -94.68681 h 36.73311 V 50.3912 Z"
                                   style="fill:none;stroke:#ff0000;stroke-width:1.59404004;stroke-linecap:butt;stroke-linejoin:miter;stroke-miterlimit:10;stroke-dasharray:none;stroke-opacity:1"
                                   id="path604"
                                   inkscape:connector-curvature="0" /></g></g></g><g
                                   id="g606"
                                   transform="translate(7.273)"><g
                                   id="g608"><g
                                   id="g610"><g
                                   id="g612"><path
                                   d="M -279.47787,-15.42024 V -28.7537 H -8.70494 v 13.33346 z"
                                   style="fill:none;stroke:#0000ff;stroke-width:1.59404004;stroke-linecap:butt;stroke-linejoin:miter;stroke-miterlimit:10;stroke-dasharray:none;stroke-opacity:1"
                                   id="path614"
                                   inkscape:connector-curvature="0" /></g></g></g><g
                                   id="g616"
                                   transform="translate(-321.416,-128.922)" /><g
                                   id="g620"
                                   transform="translate(-200.473,-128.922)" /><g
                                   id="g624"
                                   transform="translate(-79.53,-128.922)" /><g
                                   id="g628"
                                   transform="translate(-321.416,-128.922)" /></g></g></g></g></g></g></g></g></g></g></g></g></g></g></g></g></g></g></svg>