<?xml version="1.0" encoding="UTF-8"?>
<svg xmlns="http://www.w3.org/2000/svg" xmlns:xlink="http://www.w3.org/1999/xlink" width="31.289pt" height="31.289pt" viewBox="0 0 31.289 31.289" version="1.1">
<defs>
<g>
<symbol overflow="visible" id="glyph0-0">
<path style="stroke:none;" d=""/>
</symbol>
<symbol overflow="visible" id="glyph0-1">
<path style="stroke:none;" d="M 2.375 -4.53125 C 2.625 -4.625 3.34375 -5.078125 3.34375 -5.375 C 3.34375 -5.515625 3.21875 -5.515625 3.09375 -5.515625 C 2.390625 -5.515625 0.375 -4.625 0.375 -2.5625 C 0.375 -1.078125 2.046875 0.453125 4.5625 0.453125 C 7.9375 0.453125 11.84375 -1.875 11.84375 -4.6875 C 11.84375 -6.65625 9.765625 -7.59375 8.09375 -8.34375 C 6.65625 -9 5.703125 -9.859375 5.703125 -11.03125 C 5.703125 -11.46875 5.890625 -12.265625 6.53125 -12.828125 C 7.140625 -13.359375 8.296875 -13.421875 8.59375 -13.421875 C 8.8125 -13.421875 9.6875 -13.40625 10.578125 -13.015625 C 10.96875 -12.828125 11.5 -12.578125 11.5 -11.6875 C 11.5 -11.40625 11.484375 -11.296875 11.421875 -11.078125 C 11.40625 -11.015625 11.375 -10.921875 11.375 -10.859375 C 11.375 -10.71875 11.5 -10.71875 11.59375 -10.71875 C 11.859375 -10.71875 12.359375 -10.921875 12.765625 -11.28125 C 13.03125 -11.484375 13.265625 -11.75 13.265625 -12.5625 C 13.265625 -13.578125 12.71875 -13.859375 12.171875 -14.109375 C 11.203125 -14.5625 10.25 -14.5625 9.953125 -14.5625 C 7.25 -14.5625 3.953125 -12.5 3.953125 -10.140625 C 3.953125 -8.40625 5.75 -7.578125 6.734375 -7.140625 C 8.203125 -6.484375 10.078125 -5.53125 10.078125 -3.796875 C 10.078125 -2.421875 9.0625 -0.6875 5.921875 -0.6875 C 3.828125 -0.6875 2.125 -2.046875 2.125 -3.453125 C 2.125 -3.828125 2.234375 -4.1875 2.375 -4.53125 Z M 2.375 -4.53125 "/>
</symbol>
<symbol overflow="visible" id="glyph1-0">
<path style="stroke:none;" d=""/>
</symbol>
<symbol overflow="visible" id="glyph1-1">
<path style="stroke:none;" d="M 5.578125 -5.859375 C 5.140625 -5.78125 4.90625 -5.46875 4.90625 -5.15625 C 4.90625 -4.8125 5.171875 -4.6875 5.375 -4.6875 C 5.78125 -4.6875 6.109375 -5.03125 6.109375 -5.46875 C 6.109375 -5.921875 5.671875 -6.328125 4.953125 -6.328125 C 4.375 -6.328125 3.71875 -6.0625 3.109375 -5.1875 C 3.015625 -5.953125 2.4375 -6.328125 1.859375 -6.328125 C 1.3125 -6.328125 1.015625 -5.890625 0.84375 -5.578125 C 0.609375 -5.0625 0.390625 -4.203125 0.390625 -4.125 C 0.390625 -4.078125 0.4375 -4 0.546875 -4 C 0.65625 -4 0.671875 -4.015625 0.765625 -4.34375 C 0.96875 -5.203125 1.25 -6.03125 1.828125 -6.03125 C 2.171875 -6.03125 2.265625 -5.796875 2.265625 -5.375 C 2.265625 -5.0625 2.125 -4.5 2.015625 -4.0625 L 1.625 -2.515625 C 1.5625 -2.234375 1.40625 -1.59375 1.328125 -1.328125 C 1.234375 -0.96875 1.078125 -0.28125 1.078125 -0.21875 C 1.078125 -0.015625 1.234375 0.140625 1.453125 0.140625 C 1.609375 0.140625 1.875 0.046875 1.96875 -0.25 C 2.015625 -0.359375 2.53125 -2.53125 2.625 -2.859375 C 2.703125 -3.171875 2.78125 -3.46875 2.859375 -3.78125 C 2.90625 -3.984375 2.96875 -4.21875 3.015625 -4.40625 C 3.0625 -4.53125 3.4375 -5.234375 3.796875 -5.546875 C 3.96875 -5.703125 4.34375 -6.03125 4.9375 -6.03125 C 5.15625 -6.03125 5.390625 -6 5.578125 -5.859375 Z M 5.578125 -5.859375 "/>
</symbol>
</g>
</defs>
<g id="surface1">
<path style="fill:none;stroke-width:0.99628;stroke-linecap:butt;stroke-linejoin:miter;stroke:rgb(79.998779%,39.99939%,0%);stroke-opacity:1;stroke-miterlimit:10;" d="M 15.145063 0.00046875 C 15.145063 8.36375 8.363813 15.145 0.00053125 15.145 C -8.366656 15.145 -15.147906 8.36375 -15.147906 0.00046875 C -15.147906 -8.366719 -8.366656 -15.147969 0.00053125 -15.147969 C 8.363813 -15.147969 15.145063 -8.366719 15.145063 0.00046875 Z M 15.145063 0.00046875 " transform="matrix(1,0,0,-1,15.644,15.645)"/>
<g style="fill:rgb(79.998779%,39.99939%,0%);fill-opacity:1;">
  <use xlink:href="#glyph0-1" x="5.779" y="21.155"/>
</g>
<g style="fill:rgb(79.998779%,39.99939%,0%);fill-opacity:1;">
  <use xlink:href="#glyph1-1" x="18.291" y="24.254"/>
</g>
</g>
</svg>
